{
  "Store": "DFS - Changi Airport",
  "Name": "Mr. Burberry EDT",
  "ID": "#122092927",
  "Category": "Fragrance",
  "Variants": [
    {
      "Size": "100ml",
      "Color": "Black",
      "Price": "98",
      "SOH": {
        "Shelf": "7",
        "BackRoom": "8"
      }
    },
    {
      "Size": "150ml",
      "Color": "Black",
      "Price": "120",
      "SOH": {
        "Shelf": "11",
        "BackRoom": "5"
      }
    },
    {
      "Size": "200ml",
      "Color": "Black",
      "Price": "140",
      "SOH": {
        "Shelf": "0",
        "BackRoom": "0"
      }
    }

  ]
}