{
  "Name": "Mr. Burberry EDT",
  "ID": "#122092927",
  "Category": "Fragrance",
  "Stores": [
    {
      "Name": "T Galleria by DFS - Singapore",
      "id": "LOC3235413",
      "Distance": "21 mts"
    },
    {
      "Name": "DFS, Singapore Cruise Centre, Tanah Merah - Singapore",
      "id": "LOC3763451",
      "Distance": "47 mts"
    }
  ]
}